ISO-10303-21;
HEADER;
/* Generated by software containing ST-Developer
 * from STEP Tools, Inc. (www.steptools.com) 
 */

FILE_DESCRIPTION(
/* description */ (''),
/* implementation_level */ '2;1');

FILE_NAME(
/* name */ 
'K:/bb--virtual-here/enclosure/cad-files/components/Momentary - Adafru
it 3983/Momentary - Adafruit 3983.step',
/* time_stamp */ '2021-12-31T12:53:29-06:00',
/* author */ (''),
/* organization */ (''),
/* preprocessor_version */ 'ST-DEVELOPER v18.1',
/* originating_system */ 'Autodesk Translation Framework v10.10.0.1391',

/* authorisation */ '');

FILE_SCHEMA (('AUTOMOTIVE_DESIGN { 1 0 10303 214 3 1 1 }'));
ENDSEC;

DATA;
#10=MECHANICAL_DESIGN_GEOMETRIC_PRESENTATION_REPRESENTATION('',(#13,#14,
#15,#16),#945);
#11=SHAPE_REPRESENTATION_RELATIONSHIP('SRR','None',#952,#12);
#12=ADVANCED_BREP_SHAPE_REPRESENTATION('',(#17,#18,#19,#20),#944);
#13=STYLED_ITEM('',(#962),#17);
#14=STYLED_ITEM('',(#963),#18);
#15=STYLED_ITEM('',(#964),#19);
#16=STYLED_ITEM('',(#964),#20);
#17=MANIFOLD_SOLID_BREP('Button',#582);
#18=MANIFOLD_SOLID_BREP('Shell',#583);
#19=MANIFOLD_SOLID_BREP('Pin-1',#584);
#20=MANIFOLD_SOLID_BREP('Pin-2',#585);
#21=CYLINDRICAL_SURFACE('',#609,2.3);
#22=FACE_BOUND('',#68,.T.);
#23=CIRCLE('',#608,2.3);
#24=CIRCLE('',#610,2.3);
#25=FACE_OUTER_BOUND('',#59,.T.);
#26=FACE_OUTER_BOUND('',#60,.T.);
#27=FACE_OUTER_BOUND('',#61,.T.);
#28=FACE_OUTER_BOUND('',#62,.T.);
#29=FACE_OUTER_BOUND('',#63,.T.);
#30=FACE_OUTER_BOUND('',#64,.T.);
#31=FACE_OUTER_BOUND('',#65,.T.);
#32=FACE_OUTER_BOUND('',#66,.T.);
#33=FACE_OUTER_BOUND('',#67,.T.);
#34=FACE_OUTER_BOUND('',#69,.T.);
#35=FACE_OUTER_BOUND('',#70,.T.);
#36=FACE_OUTER_BOUND('',#71,.T.);
#37=FACE_OUTER_BOUND('',#72,.T.);
#38=FACE_OUTER_BOUND('',#73,.T.);
#39=FACE_OUTER_BOUND('',#74,.T.);
#40=FACE_OUTER_BOUND('',#75,.T.);
#41=FACE_OUTER_BOUND('',#76,.T.);
#42=FACE_OUTER_BOUND('',#77,.T.);
#43=FACE_OUTER_BOUND('',#78,.T.);
#44=FACE_OUTER_BOUND('',#79,.T.);
#45=FACE_OUTER_BOUND('',#80,.T.);
#46=FACE_OUTER_BOUND('',#81,.T.);
#47=FACE_OUTER_BOUND('',#82,.T.);
#48=FACE_OUTER_BOUND('',#83,.T.);
#49=FACE_OUTER_BOUND('',#84,.T.);
#50=FACE_OUTER_BOUND('',#85,.T.);
#51=FACE_OUTER_BOUND('',#86,.T.);
#52=FACE_OUTER_BOUND('',#87,.T.);
#53=FACE_OUTER_BOUND('',#88,.T.);
#54=FACE_OUTER_BOUND('',#89,.T.);
#55=FACE_OUTER_BOUND('',#90,.T.);
#56=FACE_OUTER_BOUND('',#91,.T.);
#57=FACE_OUTER_BOUND('',#92,.T.);
#58=FACE_OUTER_BOUND('',#93,.T.);
#59=EDGE_LOOP('',(#365,#366,#367,#368));
#60=EDGE_LOOP('',(#369,#370,#371,#372));
#61=EDGE_LOOP('',(#373,#374,#375,#376));
#62=EDGE_LOOP('',(#377,#378,#379,#380));
#63=EDGE_LOOP('',(#381,#382,#383,#384));
#64=EDGE_LOOP('',(#385,#386,#387,#388));
#65=EDGE_LOOP('',(#389,#390,#391,#392));
#66=EDGE_LOOP('',(#393,#394,#395,#396));
#67=EDGE_LOOP('',(#397,#398,#399,#400,#401,#402,#403,#404));
#68=EDGE_LOOP('',(#405));
#69=EDGE_LOOP('',(#406,#407,#408,#409));
#70=EDGE_LOOP('',(#410));
#71=EDGE_LOOP('',(#411,#412,#413,#414,#415,#416,#417,#418));
#72=EDGE_LOOP('',(#419,#420,#421,#422));
#73=EDGE_LOOP('',(#423,#424,#425,#426));
#74=EDGE_LOOP('',(#427,#428,#429,#430));
#75=EDGE_LOOP('',(#431,#432,#433,#434));
#76=EDGE_LOOP('',(#435,#436,#437,#438));
#77=EDGE_LOOP('',(#439,#440,#441,#442));
#78=EDGE_LOOP('',(#443,#444,#445,#446));
#79=EDGE_LOOP('',(#447,#448,#449,#450));
#80=EDGE_LOOP('',(#451,#452,#453,#454,#455,#456,#457,#458));
#81=EDGE_LOOP('',(#459,#460,#461,#462,#463,#464,#465,#466));
#82=EDGE_LOOP('',(#467,#468,#469,#470));
#83=EDGE_LOOP('',(#471,#472,#473,#474));
#84=EDGE_LOOP('',(#475,#476,#477,#478));
#85=EDGE_LOOP('',(#479,#480,#481,#482));
#86=EDGE_LOOP('',(#483,#484,#485,#486));
#87=EDGE_LOOP('',(#487,#488,#489,#490));
#88=EDGE_LOOP('',(#491,#492,#493,#494));
#89=EDGE_LOOP('',(#495,#496,#497,#498));
#90=EDGE_LOOP('',(#499,#500,#501,#502));
#91=EDGE_LOOP('',(#503,#504,#505,#506));
#92=EDGE_LOOP('',(#507,#508,#509,#510));
#93=EDGE_LOOP('',(#511,#512,#513,#514));
#94=LINE('',#786,#167);
#95=LINE('',#788,#168);
#96=LINE('',#790,#169);
#97=LINE('',#791,#170);
#98=LINE('',#794,#171);
#99=LINE('',#796,#172);
#100=LINE('',#797,#173);
#101=LINE('',#800,#174);
#102=LINE('',#802,#175);
#103=LINE('',#803,#176);
#104=LINE('',#806,#177);
#105=LINE('',#808,#178);
#106=LINE('',#809,#179);
#107=LINE('',#812,#180);
#108=LINE('',#814,#181);
#109=LINE('',#815,#182);
#110=LINE('',#818,#183);
#111=LINE('',#820,#184);
#112=LINE('',#821,#185);
#113=LINE('',#824,#186);
#114=LINE('',#826,#187);
#115=LINE('',#827,#188);
#116=LINE('',#829,#189);
#117=LINE('',#830,#190);
#118=LINE('',#837,#191);
#119=LINE('',#843,#192);
#120=LINE('',#845,#193);
#121=LINE('',#847,#194);
#122=LINE('',#848,#195);
#123=LINE('',#851,#196);
#124=LINE('',#853,#197);
#125=LINE('',#854,#198);
#126=LINE('',#857,#199);
#127=LINE('',#859,#200);
#128=LINE('',#860,#201);
#129=LINE('',#863,#202);
#130=LINE('',#865,#203);
#131=LINE('',#866,#204);
#132=LINE('',#869,#205);
#133=LINE('',#871,#206);
#134=LINE('',#872,#207);
#135=LINE('',#875,#208);
#136=LINE('',#877,#209);
#137=LINE('',#878,#210);
#138=LINE('',#881,#211);
#139=LINE('',#883,#212);
#140=LINE('',#884,#213);
#141=LINE('',#886,#214);
#142=LINE('',#887,#215);
#143=LINE('',#893,#216);
#144=LINE('',#895,#217);
#145=LINE('',#897,#218);
#146=LINE('',#898,#219);
#147=LINE('',#901,#220);
#148=LINE('',#903,#221);
#149=LINE('',#904,#222);
#150=LINE('',#907,#223);
#151=LINE('',#909,#224);
#152=LINE('',#910,#225);
#153=LINE('',#912,#226);
#154=LINE('',#913,#227);
#155=LINE('',#919,#228);
#156=LINE('',#921,#229);
#157=LINE('',#923,#230);
#158=LINE('',#924,#231);
#159=LINE('',#927,#232);
#160=LINE('',#929,#233);
#161=LINE('',#930,#234);
#162=LINE('',#933,#235);
#163=LINE('',#935,#236);
#164=LINE('',#936,#237);
#165=LINE('',#938,#238);
#166=LINE('',#939,#239);
#167=VECTOR('',#639,10.);
#168=VECTOR('',#640,10.);
#169=VECTOR('',#641,10.);
#170=VECTOR('',#642,10.);
#171=VECTOR('',#645,10.);
#172=VECTOR('',#646,10.);
#173=VECTOR('',#647,10.);
#174=VECTOR('',#650,10.);
#175=VECTOR('',#651,10.);
#176=VECTOR('',#652,10.);
#177=VECTOR('',#655,10.);
#178=VECTOR('',#656,10.);
#179=VECTOR('',#657,10.);
#180=VECTOR('',#660,10.);
#181=VECTOR('',#661,10.);
#182=VECTOR('',#662,10.);
#183=VECTOR('',#665,10.);
#184=VECTOR('',#666,10.);
#185=VECTOR('',#667,10.);
#186=VECTOR('',#670,10.);
#187=VECTOR('',#671,10.);
#188=VECTOR('',#672,10.);
#189=VECTOR('',#675,10.);
#190=VECTOR('',#676,10.);
#191=VECTOR('',#685,2.3);
#192=VECTOR('',#692,10.);
#193=VECTOR('',#693,10.);
#194=VECTOR('',#694,10.);
#195=VECTOR('',#695,10.);
#196=VECTOR('',#698,10.);
#197=VECTOR('',#699,10.);
#198=VECTOR('',#700,10.);
#199=VECTOR('',#703,10.);
#200=VECTOR('',#704,10.);
#201=VECTOR('',#705,10.);
#202=VECTOR('',#708,10.);
#203=VECTOR('',#709,10.);
#204=VECTOR('',#710,10.);
#205=VECTOR('',#713,10.);
#206=VECTOR('',#714,10.);
#207=VECTOR('',#715,10.);
#208=VECTOR('',#718,10.);
#209=VECTOR('',#719,10.);
#210=VECTOR('',#720,10.);
#211=VECTOR('',#723,10.);
#212=VECTOR('',#724,10.);
#213=VECTOR('',#725,10.);
#214=VECTOR('',#728,10.);
#215=VECTOR('',#729,10.);
#216=VECTOR('',#736,10.);
#217=VECTOR('',#737,10.);
#218=VECTOR('',#738,10.);
#219=VECTOR('',#739,10.);
#220=VECTOR('',#742,10.);
#221=VECTOR('',#743,10.);
#222=VECTOR('',#744,10.);
#223=VECTOR('',#747,10.);
#224=VECTOR('',#748,10.);
#225=VECTOR('',#749,10.);
#226=VECTOR('',#752,10.);
#227=VECTOR('',#753,10.);
#228=VECTOR('',#760,10.);
#229=VECTOR('',#761,10.);
#230=VECTOR('',#762,10.);
#231=VECTOR('',#763,10.);
#232=VECTOR('',#766,10.);
#233=VECTOR('',#767,10.);
#234=VECTOR('',#768,10.);
#235=VECTOR('',#771,10.);
#236=VECTOR('',#772,10.);
#237=VECTOR('',#773,10.);
#238=VECTOR('',#776,10.);
#239=VECTOR('',#777,10.);
#240=VERTEX_POINT('',#784);
#241=VERTEX_POINT('',#785);
#242=VERTEX_POINT('',#787);
#243=VERTEX_POINT('',#789);
#244=VERTEX_POINT('',#793);
#245=VERTEX_POINT('',#795);
#246=VERTEX_POINT('',#799);
#247=VERTEX_POINT('',#801);
#248=VERTEX_POINT('',#805);
#249=VERTEX_POINT('',#807);
#250=VERTEX_POINT('',#811);
#251=VERTEX_POINT('',#813);
#252=VERTEX_POINT('',#817);
#253=VERTEX_POINT('',#819);
#254=VERTEX_POINT('',#823);
#255=VERTEX_POINT('',#825);
#256=VERTEX_POINT('',#832);
#257=VERTEX_POINT('',#835);
#258=VERTEX_POINT('',#841);
#259=VERTEX_POINT('',#842);
#260=VERTEX_POINT('',#844);
#261=VERTEX_POINT('',#846);
#262=VERTEX_POINT('',#850);
#263=VERTEX_POINT('',#852);
#264=VERTEX_POINT('',#856);
#265=VERTEX_POINT('',#858);
#266=VERTEX_POINT('',#862);
#267=VERTEX_POINT('',#864);
#268=VERTEX_POINT('',#868);
#269=VERTEX_POINT('',#870);
#270=VERTEX_POINT('',#874);
#271=VERTEX_POINT('',#876);
#272=VERTEX_POINT('',#880);
#273=VERTEX_POINT('',#882);
#274=VERTEX_POINT('',#891);
#275=VERTEX_POINT('',#892);
#276=VERTEX_POINT('',#894);
#277=VERTEX_POINT('',#896);
#278=VERTEX_POINT('',#900);
#279=VERTEX_POINT('',#902);
#280=VERTEX_POINT('',#906);
#281=VERTEX_POINT('',#908);
#282=VERTEX_POINT('',#917);
#283=VERTEX_POINT('',#918);
#284=VERTEX_POINT('',#920);
#285=VERTEX_POINT('',#922);
#286=VERTEX_POINT('',#926);
#287=VERTEX_POINT('',#928);
#288=VERTEX_POINT('',#932);
#289=VERTEX_POINT('',#934);
#290=EDGE_CURVE('',#240,#241,#94,.F.);
#291=EDGE_CURVE('',#242,#241,#95,.T.);
#292=EDGE_CURVE('',#243,#242,#96,.T.);
#293=EDGE_CURVE('',#243,#240,#97,.T.);
#294=EDGE_CURVE('',#241,#244,#98,.F.);
#295=EDGE_CURVE('',#245,#244,#99,.T.);
#296=EDGE_CURVE('',#245,#242,#100,.T.);
#297=EDGE_CURVE('',#244,#246,#101,.F.);
#298=EDGE_CURVE('',#247,#246,#102,.T.);
#299=EDGE_CURVE('',#247,#245,#103,.T.);
#300=EDGE_CURVE('',#246,#248,#104,.F.);
#301=EDGE_CURVE('',#249,#248,#105,.T.);
#302=EDGE_CURVE('',#249,#247,#106,.T.);
#303=EDGE_CURVE('',#248,#250,#107,.F.);
#304=EDGE_CURVE('',#251,#250,#108,.T.);
#305=EDGE_CURVE('',#249,#251,#109,.T.);
#306=EDGE_CURVE('',#250,#252,#110,.F.);
#307=EDGE_CURVE('',#253,#252,#111,.T.);
#308=EDGE_CURVE('',#253,#251,#112,.T.);
#309=EDGE_CURVE('',#252,#254,#113,.F.);
#310=EDGE_CURVE('',#255,#254,#114,.T.);
#311=EDGE_CURVE('',#255,#253,#115,.T.);
#312=EDGE_CURVE('',#254,#240,#116,.F.);
#313=EDGE_CURVE('',#255,#243,#117,.T.);
#314=EDGE_CURVE('',#256,#256,#23,.T.);
#315=EDGE_CURVE('',#257,#257,#24,.T.);
#316=EDGE_CURVE('',#257,#256,#118,.T.);
#317=EDGE_CURVE('',#258,#259,#119,.T.);
#318=EDGE_CURVE('',#258,#260,#120,.T.);
#319=EDGE_CURVE('',#261,#260,#121,.T.);
#320=EDGE_CURVE('',#259,#261,#122,.T.);
#321=EDGE_CURVE('',#262,#259,#123,.T.);
#322=EDGE_CURVE('',#263,#261,#124,.T.);
#323=EDGE_CURVE('',#262,#263,#125,.T.);
#324=EDGE_CURVE('',#264,#262,#126,.T.);
#325=EDGE_CURVE('',#265,#263,#127,.T.);
#326=EDGE_CURVE('',#264,#265,#128,.T.);
#327=EDGE_CURVE('',#264,#266,#129,.T.);
#328=EDGE_CURVE('',#267,#265,#130,.T.);
#329=EDGE_CURVE('',#266,#267,#131,.T.);
#330=EDGE_CURVE('',#266,#268,#132,.T.);
#331=EDGE_CURVE('',#269,#267,#133,.T.);
#332=EDGE_CURVE('',#268,#269,#134,.T.);
#333=EDGE_CURVE('',#270,#268,#135,.T.);
#334=EDGE_CURVE('',#271,#269,#136,.T.);
#335=EDGE_CURVE('',#270,#271,#137,.T.);
#336=EDGE_CURVE('',#272,#270,#138,.T.);
#337=EDGE_CURVE('',#273,#271,#139,.T.);
#338=EDGE_CURVE('',#272,#273,#140,.T.);
#339=EDGE_CURVE('',#272,#258,#141,.T.);
#340=EDGE_CURVE('',#260,#273,#142,.T.);
#341=EDGE_CURVE('',#274,#275,#143,.T.);
#342=EDGE_CURVE('',#274,#276,#144,.T.);
#343=EDGE_CURVE('',#277,#276,#145,.T.);
#344=EDGE_CURVE('',#275,#277,#146,.T.);
#345=EDGE_CURVE('',#275,#278,#147,.T.);
#346=EDGE_CURVE('',#279,#277,#148,.T.);
#347=EDGE_CURVE('',#278,#279,#149,.T.);
#348=EDGE_CURVE('',#280,#278,#150,.T.);
#349=EDGE_CURVE('',#281,#279,#151,.T.);
#350=EDGE_CURVE('',#280,#281,#152,.T.);
#351=EDGE_CURVE('',#274,#280,#153,.T.);
#352=EDGE_CURVE('',#276,#281,#154,.T.);
#353=EDGE_CURVE('',#282,#283,#155,.T.);
#354=EDGE_CURVE('',#282,#284,#156,.T.);
#355=EDGE_CURVE('',#285,#284,#157,.T.);
#356=EDGE_CURVE('',#283,#285,#158,.T.);
#357=EDGE_CURVE('',#283,#286,#159,.T.);
#358=EDGE_CURVE('',#287,#285,#160,.T.);
#359=EDGE_CURVE('',#286,#287,#161,.T.);
#360=EDGE_CURVE('',#288,#286,#162,.T.);
#361=EDGE_CURVE('',#289,#287,#163,.T.);
#362=EDGE_CURVE('',#288,#289,#164,.T.);
#363=EDGE_CURVE('',#282,#288,#165,.T.);
#364=EDGE_CURVE('',#284,#289,#166,.T.);
#365=ORIENTED_EDGE('',*,*,#290,.T.);
#366=ORIENTED_EDGE('',*,*,#291,.F.);
#367=ORIENTED_EDGE('',*,*,#292,.F.);
#368=ORIENTED_EDGE('',*,*,#293,.T.);
#369=ORIENTED_EDGE('',*,*,#294,.T.);
#370=ORIENTED_EDGE('',*,*,#295,.F.);
#371=ORIENTED_EDGE('',*,*,#296,.T.);
#372=ORIENTED_EDGE('',*,*,#291,.T.);
#373=ORIENTED_EDGE('',*,*,#297,.T.);
#374=ORIENTED_EDGE('',*,*,#298,.F.);
#375=ORIENTED_EDGE('',*,*,#299,.T.);
#376=ORIENTED_EDGE('',*,*,#295,.T.);
#377=ORIENTED_EDGE('',*,*,#300,.T.);
#378=ORIENTED_EDGE('',*,*,#301,.F.);
#379=ORIENTED_EDGE('',*,*,#302,.T.);
#380=ORIENTED_EDGE('',*,*,#298,.T.);
#381=ORIENTED_EDGE('',*,*,#303,.T.);
#382=ORIENTED_EDGE('',*,*,#304,.F.);
#383=ORIENTED_EDGE('',*,*,#305,.F.);
#384=ORIENTED_EDGE('',*,*,#301,.T.);
#385=ORIENTED_EDGE('',*,*,#306,.T.);
#386=ORIENTED_EDGE('',*,*,#307,.F.);
#387=ORIENTED_EDGE('',*,*,#308,.T.);
#388=ORIENTED_EDGE('',*,*,#304,.T.);
#389=ORIENTED_EDGE('',*,*,#309,.T.);
#390=ORIENTED_EDGE('',*,*,#310,.F.);
#391=ORIENTED_EDGE('',*,*,#311,.T.);
#392=ORIENTED_EDGE('',*,*,#307,.T.);
#393=ORIENTED_EDGE('',*,*,#312,.T.);
#394=ORIENTED_EDGE('',*,*,#293,.F.);
#395=ORIENTED_EDGE('',*,*,#313,.F.);
#396=ORIENTED_EDGE('',*,*,#310,.T.);
#397=ORIENTED_EDGE('',*,*,#303,.F.);
#398=ORIENTED_EDGE('',*,*,#300,.F.);
#399=ORIENTED_EDGE('',*,*,#297,.F.);
#400=ORIENTED_EDGE('',*,*,#294,.F.);
#401=ORIENTED_EDGE('',*,*,#290,.F.);
#402=ORIENTED_EDGE('',*,*,#312,.F.);
#403=ORIENTED_EDGE('',*,*,#309,.F.);
#404=ORIENTED_EDGE('',*,*,#306,.F.);
#405=ORIENTED_EDGE('',*,*,#314,.F.);
#406=ORIENTED_EDGE('',*,*,#315,.F.);
#407=ORIENTED_EDGE('',*,*,#316,.T.);
#408=ORIENTED_EDGE('',*,*,#314,.T.);
#409=ORIENTED_EDGE('',*,*,#316,.F.);
#410=ORIENTED_EDGE('',*,*,#315,.T.);
#411=ORIENTED_EDGE('',*,*,#302,.F.);
#412=ORIENTED_EDGE('',*,*,#305,.T.);
#413=ORIENTED_EDGE('',*,*,#308,.F.);
#414=ORIENTED_EDGE('',*,*,#311,.F.);
#415=ORIENTED_EDGE('',*,*,#313,.T.);
#416=ORIENTED_EDGE('',*,*,#292,.T.);
#417=ORIENTED_EDGE('',*,*,#296,.F.);
#418=ORIENTED_EDGE('',*,*,#299,.F.);
#419=ORIENTED_EDGE('',*,*,#317,.F.);
#420=ORIENTED_EDGE('',*,*,#318,.T.);
#421=ORIENTED_EDGE('',*,*,#319,.F.);
#422=ORIENTED_EDGE('',*,*,#320,.F.);
#423=ORIENTED_EDGE('',*,*,#321,.T.);
#424=ORIENTED_EDGE('',*,*,#320,.T.);
#425=ORIENTED_EDGE('',*,*,#322,.F.);
#426=ORIENTED_EDGE('',*,*,#323,.F.);
#427=ORIENTED_EDGE('',*,*,#324,.T.);
#428=ORIENTED_EDGE('',*,*,#323,.T.);
#429=ORIENTED_EDGE('',*,*,#325,.F.);
#430=ORIENTED_EDGE('',*,*,#326,.F.);
#431=ORIENTED_EDGE('',*,*,#327,.F.);
#432=ORIENTED_EDGE('',*,*,#326,.T.);
#433=ORIENTED_EDGE('',*,*,#328,.F.);
#434=ORIENTED_EDGE('',*,*,#329,.F.);
#435=ORIENTED_EDGE('',*,*,#330,.F.);
#436=ORIENTED_EDGE('',*,*,#329,.T.);
#437=ORIENTED_EDGE('',*,*,#331,.F.);
#438=ORIENTED_EDGE('',*,*,#332,.F.);
#439=ORIENTED_EDGE('',*,*,#333,.T.);
#440=ORIENTED_EDGE('',*,*,#332,.T.);
#441=ORIENTED_EDGE('',*,*,#334,.F.);
#442=ORIENTED_EDGE('',*,*,#335,.F.);
#443=ORIENTED_EDGE('',*,*,#336,.T.);
#444=ORIENTED_EDGE('',*,*,#335,.T.);
#445=ORIENTED_EDGE('',*,*,#337,.F.);
#446=ORIENTED_EDGE('',*,*,#338,.F.);
#447=ORIENTED_EDGE('',*,*,#339,.F.);
#448=ORIENTED_EDGE('',*,*,#338,.T.);
#449=ORIENTED_EDGE('',*,*,#340,.F.);
#450=ORIENTED_EDGE('',*,*,#318,.F.);
#451=ORIENTED_EDGE('',*,*,#340,.T.);
#452=ORIENTED_EDGE('',*,*,#337,.T.);
#453=ORIENTED_EDGE('',*,*,#334,.T.);
#454=ORIENTED_EDGE('',*,*,#331,.T.);
#455=ORIENTED_EDGE('',*,*,#328,.T.);
#456=ORIENTED_EDGE('',*,*,#325,.T.);
#457=ORIENTED_EDGE('',*,*,#322,.T.);
#458=ORIENTED_EDGE('',*,*,#319,.T.);
#459=ORIENTED_EDGE('',*,*,#339,.T.);
#460=ORIENTED_EDGE('',*,*,#317,.T.);
#461=ORIENTED_EDGE('',*,*,#321,.F.);
#462=ORIENTED_EDGE('',*,*,#324,.F.);
#463=ORIENTED_EDGE('',*,*,#327,.T.);
#464=ORIENTED_EDGE('',*,*,#330,.T.);
#465=ORIENTED_EDGE('',*,*,#333,.F.);
#466=ORIENTED_EDGE('',*,*,#336,.F.);
#467=ORIENTED_EDGE('',*,*,#341,.F.);
#468=ORIENTED_EDGE('',*,*,#342,.T.);
#469=ORIENTED_EDGE('',*,*,#343,.F.);
#470=ORIENTED_EDGE('',*,*,#344,.F.);
#471=ORIENTED_EDGE('',*,*,#345,.F.);
#472=ORIENTED_EDGE('',*,*,#344,.T.);
#473=ORIENTED_EDGE('',*,*,#346,.F.);
#474=ORIENTED_EDGE('',*,*,#347,.F.);
#475=ORIENTED_EDGE('',*,*,#348,.T.);
#476=ORIENTED_EDGE('',*,*,#347,.T.);
#477=ORIENTED_EDGE('',*,*,#349,.F.);
#478=ORIENTED_EDGE('',*,*,#350,.F.);
#479=ORIENTED_EDGE('',*,*,#351,.T.);
#480=ORIENTED_EDGE('',*,*,#350,.T.);
#481=ORIENTED_EDGE('',*,*,#352,.F.);
#482=ORIENTED_EDGE('',*,*,#342,.F.);
#483=ORIENTED_EDGE('',*,*,#352,.T.);
#484=ORIENTED_EDGE('',*,*,#349,.T.);
#485=ORIENTED_EDGE('',*,*,#346,.T.);
#486=ORIENTED_EDGE('',*,*,#343,.T.);
#487=ORIENTED_EDGE('',*,*,#351,.F.);
#488=ORIENTED_EDGE('',*,*,#341,.T.);
#489=ORIENTED_EDGE('',*,*,#345,.T.);
#490=ORIENTED_EDGE('',*,*,#348,.F.);
#491=ORIENTED_EDGE('',*,*,#353,.F.);
#492=ORIENTED_EDGE('',*,*,#354,.T.);
#493=ORIENTED_EDGE('',*,*,#355,.F.);
#494=ORIENTED_EDGE('',*,*,#356,.F.);
#495=ORIENTED_EDGE('',*,*,#357,.F.);
#496=ORIENTED_EDGE('',*,*,#356,.T.);
#497=ORIENTED_EDGE('',*,*,#358,.F.);
#498=ORIENTED_EDGE('',*,*,#359,.F.);
#499=ORIENTED_EDGE('',*,*,#360,.T.);
#500=ORIENTED_EDGE('',*,*,#359,.T.);
#501=ORIENTED_EDGE('',*,*,#361,.F.);
#502=ORIENTED_EDGE('',*,*,#362,.F.);
#503=ORIENTED_EDGE('',*,*,#363,.T.);
#504=ORIENTED_EDGE('',*,*,#362,.T.);
#505=ORIENTED_EDGE('',*,*,#364,.F.);
#506=ORIENTED_EDGE('',*,*,#354,.F.);
#507=ORIENTED_EDGE('',*,*,#364,.T.);
#508=ORIENTED_EDGE('',*,*,#361,.T.);
#509=ORIENTED_EDGE('',*,*,#358,.T.);
#510=ORIENTED_EDGE('',*,*,#355,.T.);
#511=ORIENTED_EDGE('',*,*,#363,.F.);
#512=ORIENTED_EDGE('',*,*,#353,.T.);
#513=ORIENTED_EDGE('',*,*,#357,.T.);
#514=ORIENTED_EDGE('',*,*,#360,.F.);
#515=PLANE('',#599);
#516=PLANE('',#600);
#517=PLANE('',#601);
#518=PLANE('',#602);
#519=PLANE('',#603);
#520=PLANE('',#604);
#521=PLANE('',#605);
#522=PLANE('',#606);
#523=PLANE('',#607);
#524=PLANE('',#611);
#525=PLANE('',#612);
#526=PLANE('',#613);
#527=PLANE('',#614);
#528=PLANE('',#615);
#529=PLANE('',#616);
#530=PLANE('',#617);
#531=PLANE('',#618);
#532=PLANE('',#619);
#533=PLANE('',#620);
#534=PLANE('',#621);
#535=PLANE('',#622);
#536=PLANE('',#623);
#537=PLANE('',#624);
#538=PLANE('',#625);
#539=PLANE('',#626);
#540=PLANE('',#627);
#541=PLANE('',#628);
#542=PLANE('',#629);
#543=PLANE('',#630);
#544=PLANE('',#631);
#545=PLANE('',#632);
#546=PLANE('',#633);
#547=PLANE('',#634);
#548=ADVANCED_FACE('',(#25),#515,.T.);
#549=ADVANCED_FACE('',(#26),#516,.T.);
#550=ADVANCED_FACE('',(#27),#517,.T.);
#551=ADVANCED_FACE('',(#28),#518,.T.);
#552=ADVANCED_FACE('',(#29),#519,.T.);
#553=ADVANCED_FACE('',(#30),#520,.T.);
#554=ADVANCED_FACE('',(#31),#521,.T.);
#555=ADVANCED_FACE('',(#32),#522,.T.);
#556=ADVANCED_FACE('',(#33,#22),#523,.T.);
#557=ADVANCED_FACE('',(#34),#21,.T.);
#558=ADVANCED_FACE('',(#35),#524,.T.);
#559=ADVANCED_FACE('',(#36),#525,.F.);
#560=ADVANCED_FACE('',(#37),#526,.T.);
#561=ADVANCED_FACE('',(#38),#527,.T.);
#562=ADVANCED_FACE('',(#39),#528,.T.);
#563=ADVANCED_FACE('',(#40),#529,.T.);
#564=ADVANCED_FACE('',(#41),#530,.T.);
#565=ADVANCED_FACE('',(#42),#531,.T.);
#566=ADVANCED_FACE('',(#43),#532,.T.);
#567=ADVANCED_FACE('',(#44),#533,.T.);
#568=ADVANCED_FACE('',(#45),#534,.T.);
#569=ADVANCED_FACE('',(#46),#535,.F.);
#570=ADVANCED_FACE('',(#47),#536,.T.);
#571=ADVANCED_FACE('',(#48),#537,.T.);
#572=ADVANCED_FACE('',(#49),#538,.T.);
#573=ADVANCED_FACE('',(#50),#539,.T.);
#574=ADVANCED_FACE('',(#51),#540,.T.);
#575=ADVANCED_FACE('',(#52),#541,.F.);
#576=ADVANCED_FACE('',(#53),#542,.T.);
#577=ADVANCED_FACE('',(#54),#543,.T.);
#578=ADVANCED_FACE('',(#55),#544,.T.);
#579=ADVANCED_FACE('',(#56),#545,.T.);
#580=ADVANCED_FACE('',(#57),#546,.T.);
#581=ADVANCED_FACE('',(#58),#547,.F.);
#582=CLOSED_SHELL('',(#548,#549,#550,#551,#552,#553,#554,#555,#556,#557,
#558,#559));
#583=CLOSED_SHELL('',(#560,#561,#562,#563,#564,#565,#566,#567,#568,#569));
#584=CLOSED_SHELL('',(#570,#571,#572,#573,#574,#575));
#585=CLOSED_SHELL('',(#576,#577,#578,#579,#580,#581));
#586=DERIVED_UNIT_ELEMENT(#588,1.);
#587=DERIVED_UNIT_ELEMENT(#947,-3.);
#588=(
MASS_UNIT()
NAMED_UNIT(*)
SI_UNIT(.KILO.,.GRAM.)
);
#589=DERIVED_UNIT((#586,#587));
#590=MEASURE_REPRESENTATION_ITEM('density measure',
POSITIVE_RATIO_MEASURE(7850.),#589);
#591=PROPERTY_DEFINITION_REPRESENTATION(#596,#593);
#592=PROPERTY_DEFINITION_REPRESENTATION(#597,#594);
#593=REPRESENTATION('material name',(#595),#944);
#594=REPRESENTATION('density',(#590),#944);
#595=DESCRIPTIVE_REPRESENTATION_ITEM('Steel','Steel');
#596=PROPERTY_DEFINITION('material property','material name',#954);
#597=PROPERTY_DEFINITION('material property','density of part',#954);
#598=AXIS2_PLACEMENT_3D('placement',#782,#635,#636);
#599=AXIS2_PLACEMENT_3D('',#783,#637,#638);
#600=AXIS2_PLACEMENT_3D('',#792,#643,#644);
#601=AXIS2_PLACEMENT_3D('',#798,#648,#649);
#602=AXIS2_PLACEMENT_3D('',#804,#653,#654);
#603=AXIS2_PLACEMENT_3D('',#810,#658,#659);
#604=AXIS2_PLACEMENT_3D('',#816,#663,#664);
#605=AXIS2_PLACEMENT_3D('',#822,#668,#669);
#606=AXIS2_PLACEMENT_3D('',#828,#673,#674);
#607=AXIS2_PLACEMENT_3D('',#831,#677,#678);
#608=AXIS2_PLACEMENT_3D('',#833,#679,#680);
#609=AXIS2_PLACEMENT_3D('',#834,#681,#682);
#610=AXIS2_PLACEMENT_3D('',#836,#683,#684);
#611=AXIS2_PLACEMENT_3D('',#838,#686,#687);
#612=AXIS2_PLACEMENT_3D('',#839,#688,#689);
#613=AXIS2_PLACEMENT_3D('',#840,#690,#691);
#614=AXIS2_PLACEMENT_3D('',#849,#696,#697);
#615=AXIS2_PLACEMENT_3D('',#855,#701,#702);
#616=AXIS2_PLACEMENT_3D('',#861,#706,#707);
#617=AXIS2_PLACEMENT_3D('',#867,#711,#712);
#618=AXIS2_PLACEMENT_3D('',#873,#716,#717);
#619=AXIS2_PLACEMENT_3D('',#879,#721,#722);
#620=AXIS2_PLACEMENT_3D('',#885,#726,#727);
#621=AXIS2_PLACEMENT_3D('',#888,#730,#731);
#622=AXIS2_PLACEMENT_3D('',#889,#732,#733);
#623=AXIS2_PLACEMENT_3D('',#890,#734,#735);
#624=AXIS2_PLACEMENT_3D('',#899,#740,#741);
#625=AXIS2_PLACEMENT_3D('',#905,#745,#746);
#626=AXIS2_PLACEMENT_3D('',#911,#750,#751);
#627=AXIS2_PLACEMENT_3D('',#914,#754,#755);
#628=AXIS2_PLACEMENT_3D('',#915,#756,#757);
#629=AXIS2_PLACEMENT_3D('',#916,#758,#759);
#630=AXIS2_PLACEMENT_3D('',#925,#764,#765);
#631=AXIS2_PLACEMENT_3D('',#931,#769,#770);
#632=AXIS2_PLACEMENT_3D('',#937,#774,#775);
#633=AXIS2_PLACEMENT_3D('',#940,#778,#779);
#634=AXIS2_PLACEMENT_3D('',#941,#780,#781);
#635=DIRECTION('axis',(0.,0.,1.));
#636=DIRECTION('refdir',(1.,0.,0.));
#637=DIRECTION('center_axis',(0.707106781186541,0.707106781186554,0.));
#638=DIRECTION('ref_axis',(-0.707106781186554,0.707106781186541,0.));
#639=DIRECTION('',(-0.707106781186554,0.707106781186541,0.));
#640=DIRECTION('',(0.,0.,1.));
#641=DIRECTION('',(0.707106781186554,-0.707106781186541,0.));
#642=DIRECTION('',(0.,0.,1.));
#643=DIRECTION('center_axis',(1.,-1.20767921512372E-14,0.));
#644=DIRECTION('ref_axis',(1.20767921512372E-14,1.,0.));
#645=DIRECTION('',(1.20767921512372E-14,1.,0.));
#646=DIRECTION('',(0.,0.,1.));
#647=DIRECTION('',(1.20767921512372E-14,1.,0.));
#648=DIRECTION('center_axis',(0.707106781186541,-0.707106781186554,0.));
#649=DIRECTION('ref_axis',(0.707106781186554,0.707106781186541,0.));
#650=DIRECTION('',(0.707106781186554,0.707106781186541,0.));
#651=DIRECTION('',(0.,0.,1.));
#652=DIRECTION('',(0.707106781186554,0.707106781186541,0.));
#653=DIRECTION('center_axis',(0.,-1.,0.));
#654=DIRECTION('ref_axis',(1.,0.,0.));
#655=DIRECTION('',(1.,0.,0.));
#656=DIRECTION('',(0.,0.,1.));
#657=DIRECTION('',(1.,0.,0.));
#658=DIRECTION('center_axis',(-0.707106781186541,-0.707106781186554,0.));
#659=DIRECTION('ref_axis',(0.707106781186554,-0.707106781186541,0.));
#660=DIRECTION('',(0.707106781186554,-0.707106781186541,0.));
#661=DIRECTION('',(0.,0.,1.));
#662=DIRECTION('',(-0.707106781186554,0.707106781186541,0.));
#663=DIRECTION('center_axis',(-1.,1.20767921512372E-14,0.));
#664=DIRECTION('ref_axis',(-1.20767921512372E-14,-1.,0.));
#665=DIRECTION('',(-1.20767921512372E-14,-1.,0.));
#666=DIRECTION('',(0.,0.,1.));
#667=DIRECTION('',(-1.20767921512372E-14,-1.,0.));
#668=DIRECTION('center_axis',(-0.707106781186541,0.707106781186554,0.));
#669=DIRECTION('ref_axis',(-0.707106781186554,-0.707106781186541,0.));
#670=DIRECTION('',(-0.707106781186554,-0.707106781186541,0.));
#671=DIRECTION('',(0.,0.,1.));
#672=DIRECTION('',(-0.707106781186554,-0.707106781186541,0.));
#673=DIRECTION('center_axis',(0.,1.,0.));
#674=DIRECTION('ref_axis',(-1.,0.,0.));
#675=DIRECTION('',(-1.,0.,0.));
#676=DIRECTION('',(1.,0.,0.));
#677=DIRECTION('center_axis',(0.,0.,1.));
#678=DIRECTION('ref_axis',(1.,0.,0.));
#679=DIRECTION('center_axis',(0.,0.,1.));
#680=DIRECTION('ref_axis',(1.,0.,0.));
#681=DIRECTION('center_axis',(0.,0.,1.));
#682=DIRECTION('ref_axis',(1.,0.,0.));
#683=DIRECTION('center_axis',(0.,0.,1.));
#684=DIRECTION('ref_axis',(1.,0.,0.));
#685=DIRECTION('',(0.,0.,-1.));
#686=DIRECTION('center_axis',(0.,0.,1.));
#687=DIRECTION('ref_axis',(1.,0.,0.));
#688=DIRECTION('center_axis',(0.,0.,1.));
#689=DIRECTION('ref_axis',(1.,0.,0.));
#690=DIRECTION('center_axis',(-0.707106781186548,0.707106781186547,0.));
#691=DIRECTION('ref_axis',(-0.707106781186547,-0.707106781186548,0.));
#692=DIRECTION('',(0.707106781186547,0.707106781186548,0.));
#693=DIRECTION('',(0.,0.,1.));
#694=DIRECTION('',(-0.707106781186547,-0.707106781186548,0.));
#695=DIRECTION('',(0.,0.,1.));
#696=DIRECTION('center_axis',(0.,1.,0.));
#697=DIRECTION('ref_axis',(-1.,0.,0.));
#698=DIRECTION('',(-1.,0.,0.));
#699=DIRECTION('',(-1.,0.,0.));
#700=DIRECTION('',(0.,0.,1.));
#701=DIRECTION('center_axis',(0.707106781186548,0.707106781186547,0.));
#702=DIRECTION('ref_axis',(-0.707106781186547,0.707106781186548,0.));
#703=DIRECTION('',(-0.707106781186547,0.707106781186548,0.));
#704=DIRECTION('',(-0.707106781186547,0.707106781186548,0.));
#705=DIRECTION('',(0.,0.,1.));
#706=DIRECTION('center_axis',(1.,0.,0.));
#707=DIRECTION('ref_axis',(0.,1.,0.));
#708=DIRECTION('',(0.,-1.,0.));
#709=DIRECTION('',(0.,1.,0.));
#710=DIRECTION('',(0.,0.,1.));
#711=DIRECTION('center_axis',(0.707106781186548,-0.707106781186548,0.));
#712=DIRECTION('ref_axis',(0.707106781186548,0.707106781186548,0.));
#713=DIRECTION('',(-0.707106781186548,-0.707106781186548,0.));
#714=DIRECTION('',(0.707106781186548,0.707106781186548,0.));
#715=DIRECTION('',(0.,0.,1.));
#716=DIRECTION('center_axis',(0.,-1.,0.));
#717=DIRECTION('ref_axis',(1.,0.,0.));
#718=DIRECTION('',(1.,0.,0.));
#719=DIRECTION('',(1.,0.,0.));
#720=DIRECTION('',(0.,0.,1.));
#721=DIRECTION('center_axis',(-0.707106781186548,-0.707106781186548,0.));
#722=DIRECTION('ref_axis',(0.707106781186548,-0.707106781186548,0.));
#723=DIRECTION('',(0.707106781186548,-0.707106781186548,0.));
#724=DIRECTION('',(0.707106781186548,-0.707106781186548,0.));
#725=DIRECTION('',(0.,0.,1.));
#726=DIRECTION('center_axis',(-1.,0.,0.));
#727=DIRECTION('ref_axis',(0.,-1.,0.));
#728=DIRECTION('',(0.,1.,0.));
#729=DIRECTION('',(0.,-1.,0.));
#730=DIRECTION('center_axis',(0.,0.,1.));
#731=DIRECTION('ref_axis',(1.,0.,0.));
#732=DIRECTION('center_axis',(0.,0.,1.));
#733=DIRECTION('ref_axis',(1.,0.,0.));
#734=DIRECTION('center_axis',(-9.25185853854298E-16,1.,0.));
#735=DIRECTION('ref_axis',(-1.,-9.25185853854298E-16,0.));
#736=DIRECTION('',(1.,9.25185853854298E-16,0.));
#737=DIRECTION('',(0.,0.,1.));
#738=DIRECTION('',(-1.,-9.25185853854298E-16,0.));
#739=DIRECTION('',(0.,0.,1.));
#740=DIRECTION('center_axis',(1.,0.,0.));
#741=DIRECTION('ref_axis',(0.,1.,0.));
#742=DIRECTION('',(0.,-1.,0.));
#743=DIRECTION('',(0.,1.,0.));
#744=DIRECTION('',(0.,0.,1.));
#745=DIRECTION('center_axis',(-9.25185853854298E-16,-1.,0.));
#746=DIRECTION('ref_axis',(1.,-9.25185853854298E-16,0.));
#747=DIRECTION('',(1.,-9.25185853854298E-16,0.));
#748=DIRECTION('',(1.,-9.25185853854298E-16,0.));
#749=DIRECTION('',(0.,0.,1.));
#750=DIRECTION('center_axis',(-1.,0.,0.));
#751=DIRECTION('ref_axis',(0.,-1.,0.));
#752=DIRECTION('',(0.,-1.,0.));
#753=DIRECTION('',(0.,-1.,0.));
#754=DIRECTION('center_axis',(0.,0.,1.));
#755=DIRECTION('ref_axis',(1.,0.,0.));
#756=DIRECTION('center_axis',(0.,0.,1.));
#757=DIRECTION('ref_axis',(1.,0.,0.));
#758=DIRECTION('center_axis',(0.,-1.,0.));
#759=DIRECTION('ref_axis',(1.,0.,0.));
#760=DIRECTION('',(-1.,0.,0.));
#761=DIRECTION('',(0.,0.,1.));
#762=DIRECTION('',(1.,0.,0.));
#763=DIRECTION('',(0.,0.,1.));
#764=DIRECTION('center_axis',(-1.,0.,0.));
#765=DIRECTION('ref_axis',(0.,-1.,0.));
#766=DIRECTION('',(0.,1.,0.));
#767=DIRECTION('',(0.,-1.,0.));
#768=DIRECTION('',(0.,0.,1.));
#769=DIRECTION('center_axis',(9.25185853854298E-16,1.,0.));
#770=DIRECTION('ref_axis',(-1.,9.25185853854298E-16,0.));
#771=DIRECTION('',(-1.,9.25185853854298E-16,0.));
#772=DIRECTION('',(-1.,9.25185853854298E-16,0.));
#773=DIRECTION('',(0.,0.,1.));
#774=DIRECTION('center_axis',(1.,0.,0.));
#775=DIRECTION('ref_axis',(0.,1.,0.));
#776=DIRECTION('',(0.,1.,0.));
#777=DIRECTION('',(0.,1.,0.));
#778=DIRECTION('center_axis',(0.,0.,1.));
#779=DIRECTION('ref_axis',(1.,0.,0.));
#780=DIRECTION('center_axis',(0.,0.,1.));
#781=DIRECTION('ref_axis',(1.,0.,0.));
#782=CARTESIAN_POINT('',(0.,0.,0.));
#783=CARTESIAN_POINT('Origin',(2.45000000000001,1.79264068711928,1.));
#784=CARTESIAN_POINT('',(1.79264068711928,2.44999999999999,4.75));
#785=CARTESIAN_POINT('',(2.45000000000001,1.79264068711928,4.75));
#786=CARTESIAN_POINT('',(2.28566017177982,1.95698051533947,4.75));
#787=CARTESIAN_POINT('',(2.45000000000001,1.79264068711928,1.));
#788=CARTESIAN_POINT('',(2.45000000000001,1.79264068711928,1.));
#789=CARTESIAN_POINT('',(1.79264068711928,2.44999999999999,1.));
#790=CARTESIAN_POINT('',(1.79264068711928,2.44999999999999,1.));
#791=CARTESIAN_POINT('',(1.79264068711928,2.44999999999999,1.));
#792=CARTESIAN_POINT('Origin',(2.45000000000001,-1.79264068711928,1.));
#793=CARTESIAN_POINT('',(2.45000000000001,-1.79264068711928,4.75));
#794=CARTESIAN_POINT('',(2.45000000000002,-0.896320343559656,4.75));
#795=CARTESIAN_POINT('',(2.45000000000001,-1.79264068711928,1.));
#796=CARTESIAN_POINT('',(2.45000000000001,-1.79264068711928,1.));
#797=CARTESIAN_POINT('',(2.45000000000001,-1.79264068711928,1.));
#798=CARTESIAN_POINT('Origin',(1.79264068711928,-2.44999999999999,1.));
#799=CARTESIAN_POINT('',(1.79264068711928,-2.44999999999999,4.75));
#800=CARTESIAN_POINT('',(1.95698051533945,-2.28566017177983,4.75));
#801=CARTESIAN_POINT('',(1.79264068711928,-2.44999999999999,1.));
#802=CARTESIAN_POINT('',(1.79264068711928,-2.44999999999999,1.));
#803=CARTESIAN_POINT('',(1.79264068711928,-2.44999999999999,1.));
#804=CARTESIAN_POINT('Origin',(-1.79264068711928,-2.44999999999999,1.));
#805=CARTESIAN_POINT('',(-1.79264068711928,-2.44999999999999,4.75));
#806=CARTESIAN_POINT('',(-0.896320343559642,-2.44999999999999,4.75));
#807=CARTESIAN_POINT('',(-1.79264068711928,-2.44999999999999,1.));
#808=CARTESIAN_POINT('',(-1.79264068711928,-2.44999999999999,1.));
#809=CARTESIAN_POINT('',(2.77555756156289E-16,-2.44999999999999,1.));
#810=CARTESIAN_POINT('Origin',(-2.45000000000001,-1.79264068711928,1.));
#811=CARTESIAN_POINT('',(-2.45000000000001,-1.79264068711928,4.75));
#812=CARTESIAN_POINT('',(-2.28566017177982,-1.95698051533947,4.75));
#813=CARTESIAN_POINT('',(-2.45000000000001,-1.79264068711928,1.));
#814=CARTESIAN_POINT('',(-2.45000000000001,-1.79264068711928,1.));
#815=CARTESIAN_POINT('',(-1.79264068711928,-2.44999999999999,1.));
#816=CARTESIAN_POINT('Origin',(-2.45000000000001,1.79264068711928,1.));
#817=CARTESIAN_POINT('',(-2.45000000000001,1.79264068711928,4.75));
#818=CARTESIAN_POINT('',(-2.45000000000002,0.896320343559657,4.75));
#819=CARTESIAN_POINT('',(-2.45000000000001,1.79264068711928,1.));
#820=CARTESIAN_POINT('',(-2.45000000000001,1.79264068711928,1.));
#821=CARTESIAN_POINT('',(-2.45000000000001,1.79264068711928,1.));
#822=CARTESIAN_POINT('Origin',(-1.79264068711928,2.44999999999999,1.));
#823=CARTESIAN_POINT('',(-1.79264068711928,2.44999999999999,4.75));
#824=CARTESIAN_POINT('',(-1.95698051533945,2.28566017177983,4.75));
#825=CARTESIAN_POINT('',(-1.79264068711928,2.44999999999999,1.));
#826=CARTESIAN_POINT('',(-1.79264068711928,2.44999999999999,1.));
#827=CARTESIAN_POINT('',(-1.79264068711928,2.44999999999999,1.));
#828=CARTESIAN_POINT('Origin',(1.79264068711928,2.44999999999999,1.));
#829=CARTESIAN_POINT('',(0.896320343559642,2.44999999999999,4.75));
#830=CARTESIAN_POINT('',(0.,2.44999999999999,1.));
#831=CARTESIAN_POINT('Origin',(0.,0.,4.75));
#832=CARTESIAN_POINT('',(-2.3,2.81668763803891E-16,4.75));
#833=CARTESIAN_POINT('Origin',(0.,0.,4.75));
#834=CARTESIAN_POINT('Origin',(0.,0.,1.));
#835=CARTESIAN_POINT('',(-2.3,-2.81668763803891E-16,5.));
#836=CARTESIAN_POINT('Origin',(0.,0.,5.));
#837=CARTESIAN_POINT('',(-2.3,-2.81668763803891E-16,1.));
#838=CARTESIAN_POINT('Origin',(0.,0.,5.));
#839=CARTESIAN_POINT('Origin',(0.,0.,1.));
#840=CARTESIAN_POINT('Origin',(-1.87903679018718,3.,0.));
#841=CARTESIAN_POINT('',(-3.,1.87903679018718,0.));
#842=CARTESIAN_POINT('',(-1.87903679018718,3.,0.));
#843=CARTESIAN_POINT('',(-3.,1.87903679018718,0.));
#844=CARTESIAN_POINT('',(-3.,1.87903679018718,3.5));
#845=CARTESIAN_POINT('',(-3.,1.87903679018718,0.));
#846=CARTESIAN_POINT('',(-1.87903679018718,3.,3.5));
#847=CARTESIAN_POINT('',(-3.,1.87903679018718,3.5));
#848=CARTESIAN_POINT('',(-1.87903679018718,3.,0.));
#849=CARTESIAN_POINT('Origin',(1.87903679018718,3.,0.));
#850=CARTESIAN_POINT('',(1.87903679018718,3.,0.));
#851=CARTESIAN_POINT('',(1.87903679018718,3.,0.));
#852=CARTESIAN_POINT('',(1.87903679018718,3.,3.5));
#853=CARTESIAN_POINT('',(1.87903679018718,3.,3.5));
#854=CARTESIAN_POINT('',(1.87903679018718,3.,0.));
#855=CARTESIAN_POINT('Origin',(3.,1.87903679018718,0.));
#856=CARTESIAN_POINT('',(3.,1.87903679018718,0.));
#857=CARTESIAN_POINT('',(3.,1.87903679018718,0.));
#858=CARTESIAN_POINT('',(3.,1.87903679018718,3.5));
#859=CARTESIAN_POINT('',(3.,1.87903679018718,3.5));
#860=CARTESIAN_POINT('',(3.,1.87903679018718,0.));
#861=CARTESIAN_POINT('Origin',(3.,-1.87903679018718,0.));
#862=CARTESIAN_POINT('',(3.,-1.87903679018718,0.));
#863=CARTESIAN_POINT('',(3.,1.81014623580189E-16,0.));
#864=CARTESIAN_POINT('',(3.,-1.87903679018718,3.5));
#865=CARTESIAN_POINT('',(3.,1.81014623580189E-16,3.5));
#866=CARTESIAN_POINT('',(3.,-1.87903679018718,0.));
#867=CARTESIAN_POINT('Origin',(1.87903679018718,-3.,0.));
#868=CARTESIAN_POINT('',(1.87903679018718,-3.,0.));
#869=CARTESIAN_POINT('',(3.,-1.87903679018718,0.));
#870=CARTESIAN_POINT('',(1.87903679018718,-3.,3.5));
#871=CARTESIAN_POINT('',(3.,-1.87903679018718,3.5));
#872=CARTESIAN_POINT('',(1.87903679018718,-3.,0.));
#873=CARTESIAN_POINT('Origin',(-1.87903679018718,-3.,0.));
#874=CARTESIAN_POINT('',(-1.87903679018718,-3.,0.));
#875=CARTESIAN_POINT('',(-1.87903679018718,-3.,0.));
#876=CARTESIAN_POINT('',(-1.87903679018718,-3.,3.5));
#877=CARTESIAN_POINT('',(-1.87903679018718,-3.,3.5));
#878=CARTESIAN_POINT('',(-1.87903679018718,-3.,0.));
#879=CARTESIAN_POINT('Origin',(-3.,-1.87903679018718,0.));
#880=CARTESIAN_POINT('',(-3.,-1.87903679018718,0.));
#881=CARTESIAN_POINT('',(-3.,-1.87903679018718,0.));
#882=CARTESIAN_POINT('',(-3.,-1.87903679018718,3.5));
#883=CARTESIAN_POINT('',(-3.,-1.87903679018718,3.5));
#884=CARTESIAN_POINT('',(-3.,-1.87903679018718,0.));
#885=CARTESIAN_POINT('Origin',(-3.,1.87903679018718,0.));
#886=CARTESIAN_POINT('',(-3.,0.,0.));
#887=CARTESIAN_POINT('',(-3.,0.,3.5));
#888=CARTESIAN_POINT('Origin',(5.55111512312578E-16,0.,3.5));
#889=CARTESIAN_POINT('Origin',(5.55111512312578E-16,0.,0.));
#890=CARTESIAN_POINT('Origin',(-3.,0.699999999999539,0.));
#891=CARTESIAN_POINT('',(-3.3,0.699999999999538,0.));
#892=CARTESIAN_POINT('',(-3.,0.699999999999539,0.));
#893=CARTESIAN_POINT('',(-3.3,0.699999999999538,0.));
#894=CARTESIAN_POINT('',(-3.3,0.699999999999538,1.));
#895=CARTESIAN_POINT('',(-3.3,0.699999999999538,0.));
#896=CARTESIAN_POINT('',(-3.,0.699999999999539,1.));
#897=CARTESIAN_POINT('',(-3.3,0.699999999999538,1.));
#898=CARTESIAN_POINT('',(-3.,0.699999999999539,0.));
#899=CARTESIAN_POINT('Origin',(-3.,-0.699999999999539,0.));
#900=CARTESIAN_POINT('',(-3.,-0.699999999999539,0.));
#901=CARTESIAN_POINT('',(-3.,-1.81014623580189E-16,0.));
#902=CARTESIAN_POINT('',(-3.,-0.699999999999539,1.));
#903=CARTESIAN_POINT('',(-3.,-1.81014623580189E-16,1.));
#904=CARTESIAN_POINT('',(-3.,-0.699999999999539,0.));
#905=CARTESIAN_POINT('Origin',(-3.3,-0.699999999999538,0.));
#906=CARTESIAN_POINT('',(-3.3,-0.699999999999538,0.));
#907=CARTESIAN_POINT('',(-3.3,-0.699999999999538,0.));
#908=CARTESIAN_POINT('',(-3.3,-0.699999999999538,1.));
#909=CARTESIAN_POINT('',(-3.3,-0.699999999999538,1.));
#910=CARTESIAN_POINT('',(-3.3,-0.699999999999538,0.));
#911=CARTESIAN_POINT('Origin',(-3.3,0.699999999999538,0.));
#912=CARTESIAN_POINT('',(-3.3,4.61551804422349E-13,0.));
#913=CARTESIAN_POINT('',(-3.3,4.61551804422349E-13,1.));
#914=CARTESIAN_POINT('Origin',(-3.15,0.,1.));
#915=CARTESIAN_POINT('Origin',(-3.15,0.,0.));
#916=CARTESIAN_POINT('Origin',(3.,-0.699999999999539,0.));
#917=CARTESIAN_POINT('',(3.3,-0.699999999999539,0.));
#918=CARTESIAN_POINT('',(3.,-0.699999999999539,0.));
#919=CARTESIAN_POINT('',(3.3,-0.699999999999539,0.));
#920=CARTESIAN_POINT('',(3.3,-0.699999999999539,1.));
#921=CARTESIAN_POINT('',(3.3,-0.699999999999539,0.));
#922=CARTESIAN_POINT('',(3.,-0.699999999999539,1.));
#923=CARTESIAN_POINT('',(3.3,-0.699999999999539,1.));
#924=CARTESIAN_POINT('',(3.,-0.699999999999539,0.));
#925=CARTESIAN_POINT('Origin',(3.,0.699999999999539,0.));
#926=CARTESIAN_POINT('',(3.,0.699999999999539,0.));
#927=CARTESIAN_POINT('',(3.,0.,0.));
#928=CARTESIAN_POINT('',(3.,0.699999999999539,1.));
#929=CARTESIAN_POINT('',(3.,0.,1.));
#930=CARTESIAN_POINT('',(3.,0.699999999999539,0.));
#931=CARTESIAN_POINT('Origin',(3.3,0.699999999999538,0.));
#932=CARTESIAN_POINT('',(3.3,0.699999999999538,0.));
#933=CARTESIAN_POINT('',(3.3,0.699999999999538,0.));
#934=CARTESIAN_POINT('',(3.3,0.699999999999538,1.));
#935=CARTESIAN_POINT('',(3.3,0.699999999999538,1.));
#936=CARTESIAN_POINT('',(3.3,0.699999999999538,0.));
#937=CARTESIAN_POINT('Origin',(3.3,-0.699999999999539,0.));
#938=CARTESIAN_POINT('',(3.3,-4.61852778244065E-13,0.));
#939=CARTESIAN_POINT('',(3.3,-4.61852778244065E-13,1.));
#940=CARTESIAN_POINT('Origin',(3.15,0.,1.));
#941=CARTESIAN_POINT('Origin',(3.15,0.,0.));
#942=UNCERTAINTY_MEASURE_WITH_UNIT(LENGTH_MEASURE(0.01),#946,
'DISTANCE_ACCURACY_VALUE',
'Maximum model space distance between geometric entities at asserted c
onnectivities');
#943=UNCERTAINTY_MEASURE_WITH_UNIT(LENGTH_MEASURE(0.01),#946,
'DISTANCE_ACCURACY_VALUE',
'Maximum model space distance between geometric entities at asserted c
onnectivities');
#944=(
GEOMETRIC_REPRESENTATION_CONTEXT(3)
GLOBAL_UNCERTAINTY_ASSIGNED_CONTEXT((#942))
GLOBAL_UNIT_ASSIGNED_CONTEXT((#946,#948,#949))
REPRESENTATION_CONTEXT('','3D')
);
#945=(
GEOMETRIC_REPRESENTATION_CONTEXT(3)
GLOBAL_UNCERTAINTY_ASSIGNED_CONTEXT((#943))
GLOBAL_UNIT_ASSIGNED_CONTEXT((#946,#948,#949))
REPRESENTATION_CONTEXT('','3D')
);
#946=(
LENGTH_UNIT()
NAMED_UNIT(*)
SI_UNIT(.MILLI.,.METRE.)
);
#947=(
LENGTH_UNIT()
NAMED_UNIT(*)
SI_UNIT($,.METRE.)
);
#948=(
NAMED_UNIT(*)
PLANE_ANGLE_UNIT()
SI_UNIT($,.RADIAN.)
);
#949=(
NAMED_UNIT(*)
SI_UNIT($,.STERADIAN.)
SOLID_ANGLE_UNIT()
);
#950=SHAPE_DEFINITION_REPRESENTATION(#951,#952);
#951=PRODUCT_DEFINITION_SHAPE('',$,#954);
#952=SHAPE_REPRESENTATION('',(#598),#944);
#953=PRODUCT_DEFINITION_CONTEXT('part definition',#958,'design');
#954=PRODUCT_DEFINITION('Momentary - Adafruit 3983',
'Momentary - Adafruit 3983',#955,#953);
#955=PRODUCT_DEFINITION_FORMATION('',$,#960);
#956=PRODUCT_RELATED_PRODUCT_CATEGORY('Momentary - Adafruit 3983',
'Momentary - Adafruit 3983',(#960));
#957=APPLICATION_PROTOCOL_DEFINITION('international standard',
'automotive_design',2009,#958);
#958=APPLICATION_CONTEXT(
'Core Data for Automotive Mechanical Design Process');
#959=PRODUCT_CONTEXT('part definition',#958,'mechanical');
#960=PRODUCT('Momentary - Adafruit 3983','Momentary - Adafruit 3983',$,
(#959));
#961=PRESENTATION_STYLE_ASSIGNMENT((#965));
#962=PRESENTATION_STYLE_ASSIGNMENT((#966));
#963=PRESENTATION_STYLE_ASSIGNMENT((#967));
#964=PRESENTATION_STYLE_ASSIGNMENT((#968));
#965=SURFACE_STYLE_USAGE(.BOTH.,#969);
#966=SURFACE_STYLE_USAGE(.BOTH.,#970);
#967=SURFACE_STYLE_USAGE(.BOTH.,#971);
#968=SURFACE_STYLE_USAGE(.BOTH.,#972);
#969=SURFACE_SIDE_STYLE('',(#973));
#970=SURFACE_SIDE_STYLE('',(#974));
#971=SURFACE_SIDE_STYLE('',(#975));
#972=SURFACE_SIDE_STYLE('',(#976));
#973=SURFACE_STYLE_FILL_AREA(#977);
#974=SURFACE_STYLE_FILL_AREA(#978);
#975=SURFACE_STYLE_FILL_AREA(#979);
#976=SURFACE_STYLE_FILL_AREA(#980);
#977=FILL_AREA_STYLE('Steel - Satin',(#981));
#978=FILL_AREA_STYLE('Aluminum - Anodized Glossy (Grey)',(#982));
#979=FILL_AREA_STYLE('Coating - Black Oxide',(#983));
#980=FILL_AREA_STYLE('Paint - Metallic (Silver)',(#984));
#981=FILL_AREA_STYLE_COLOUR('Steel - Satin',#985);
#982=FILL_AREA_STYLE_COLOUR('Aluminum - Anodized Glossy (Grey)',#986);
#983=FILL_AREA_STYLE_COLOUR('Coating - Black Oxide',#987);
#984=FILL_AREA_STYLE_COLOUR('Paint - Metallic (Silver)',#988);
#985=COLOUR_RGB('Steel - Satin',0.627450980392157,0.627450980392157,0.627450980392157);
#986=COLOUR_RGB('Aluminum - Anodized Glossy (Grey)',0.537254901960784,0.537254901960784,
0.537254901960784);
#987=COLOUR_RGB('Coating - Black Oxide',0.172549019607843,0.172549019607843,
0.172549019607843);
#988=COLOUR_RGB('Paint - Metallic (Silver)',0.984313725490196,0.980392156862745,
0.96078431372549);
ENDSEC;
END-ISO-10303-21;
